{
    "velo_geometry_local_x": [
        0.027499999850988388,
        0.08250000327825546,
        0.13750000298023224,
        0.19249999523162842,
        0.2475000023841858,
        0.30250000953674316,
        0.35749998688697815,
        0.4124999940395355,
        0.4675000011920929,
        0.5224999785423279,
        0.5774999856948853,
        0.6324999928474426,
        0.6875,
        0.7425000071525574,
        0.7975000143051147,
        0.8525000214576721,
        0.9075000286102295,
        0.9624999761581421,
        1.0175000429153442,
        1.0724999904632568,
        1.127500057220459,
        1.1825000047683716,
        1.2374999523162842,
        1.2925000190734863,
        1.347499966621399,
        1.402500033378601,
        1.4574999809265137,
        1.5125000476837158,
        1.5674999952316284,
        1.622499942779541,
        1.6775000095367432,
        1.7324999570846558,
        1.787500023841858,
        1.8424999713897705,
        1.8975000381469727,
        1.9524999856948853,
        2.007499933242798,
        2.0625,
        2.117500066757202,
        2.172499895095825,
        2.2274999618530273,
        2.2825000286102295,
        2.3375000953674316,
        2.3924999237060547,
        2.447499990463257,
        2.502500057220459,
        2.557499885559082,
        2.612499952316284,
        2.6675000190734863,
        2.7225000858306885,
        2.7774999141693115,
        2.8324999809265137,
        2.887500047683716,
        2.942500114440918,
        2.997499942779541,
        3.052500009536743,
        3.1075000762939453,
        3.1624999046325684,
        3.2174999713897705,
        3.2725000381469727,
        3.327500104904175,
        3.382499933242798,
        3.4375,
        3.492500066757202,
        3.547499895095825,
        3.6024999618530273,
        3.6575000286102295,
        3.7125000953674316,
        3.7674999237060547,
        3.822499990463257,
        3.877500057220459,
        3.932499885559082,
        3.987499952316284,
        4.042500019073486,
        4.097499847412109,
        4.152500152587891,
        4.207499980926514,
        4.262499809265137,
        4.317500114440918,
        4.372499942779541,
        4.427499771118164,
        4.482500076293945,
        4.537499904632568,
        4.59250020980835,
        4.647500038146973,
        4.702499866485596,
        4.757500171661377,
        4.8125,
        4.867499828338623,
        4.922500133514404,
        4.977499961853027,
        5.03249979019165,
        5.087500095367432,
        5.142499923706055,
        5.197500228881836,
        5.252500057220459,
        5.307499885559082,
        5.362500190734863,
        5.417500019073486,
        5.472499847412109,
        5.527500152587891,
        5.582499980926514,
        5.637499809265137,
        5.692500114440918,
        5.747499942779541,
        5.802499771118164,
        5.857500076293945,
        5.912499904632568,
        5.96750020980835,
        6.022500038146973,
        6.077499866485596,
        6.132500171661377,
        6.1875,
        6.242499828338623,
        6.297500133514404,
        6.352499961853027,
        6.40749979019165,
        6.462500095367432,
        6.517499923706055,
        6.572500228881836,
        6.627500057220459,
        6.682499885559082,
        6.737500190734863,
        6.792500019073486,
        6.847499847412109,
        6.902500152587891,
        6.957499980926514,
        7.012499809265137,
        7.067500114440918,
        7.122499942779541,
        7.177499771118164,
        7.232500076293945,
        7.287499904632568,
        7.34250020980835,
        7.397500038146973,
        7.452499866485596,
        7.507500171661377,
        7.5625,
        7.617499828338623,
        7.672500133514404,
        7.727499961853027,
        7.78249979019165,
        7.837500095367432,
        7.892499923706055,
        7.947500228881836,
        8.0024995803833,
        8.057499885559082,
        8.112500190734863,
        8.167499542236328,
        8.22249984741211,
        8.27750015258789,
        8.332500457763672,
        8.387499809265137,
        8.442500114440918,
        8.4975004196167,
        8.552499771118164,
        8.607500076293945,
        8.662500381469727,
        8.717499732971191,
        8.772500038146973,
        8.827500343322754,
        8.882499694824219,
        8.9375,
        8.992500305175781,
        9.047499656677246,
        9.102499961853027,
        9.157500267028809,
        9.212499618530273,
        9.267499923706055,
        9.322500228881836,
        9.3774995803833,
        9.432499885559082,
        9.487500190734863,
        9.542499542236328,
        9.59749984741211,
        9.65250015258789,
        9.707500457763672,
        9.762499809265137,
        9.817500114440918,
        9.8725004196167,
        9.927499771118164,
        9.982500076293945,
        10.037500381469727,
        10.092499732971191,
        10.147500038146973,
        10.202500343322754,
        10.257499694824219,
        10.3125,
        10.367500305175781,
        10.422499656677246,
        10.477499961853027,
        10.532500267028809,
        10.587499618530273,
        10.642499923706055,
        10.697500228881836,
        10.7524995803833,
        10.807499885559082,
        10.862500190734863,
        10.917499542236328,
        10.97249984741211,
        11.02750015258789,
        11.082500457763672,
        11.137499809265137,
        11.192500114440918,
        11.2475004196167,
        11.302499771118164,
        11.357500076293945,
        11.412500381469727,
        11.467499732971191,
        11.522500038146973,
        11.577500343322754,
        11.632499694824219,
        11.6875,
        11.742500305175781,
        11.797499656677246,
        11.852499961853027,
        11.907500267028809,
        11.962499618530273,
        12.017499923706055,
        12.072500228881836,
        12.1274995803833,
        12.182499885559082,
        12.237500190734863,
        12.292499542236328,
        12.34749984741211,
        12.40250015258789,
        12.457500457763672,
        12.512499809265137,
        12.567500114440918,
        12.6225004196167,
        12.677499771118164,
        12.732500076293945,
        12.787500381469727,
        12.842499732971191,
        12.897500038146973,
        12.952500343322754,
        13.007499694824219,
        13.0625,
        13.117500305175781,
        13.172499656677246,
        13.227499961853027,
        13.282500267028809,
        13.337499618530273,
        13.392499923706055,
        13.447500228881836,
        13.5024995803833,
        13.557499885559082,
        13.612500190734863,
        13.667499542236328,
        13.72249984741211,
        13.77750015258789,
        13.832500457763672,
        13.887499809265137,
        13.942500114440918,
        13.9975004196167,
        14.09375,
        14.231249809265137,
        14.327500343322754,
        14.382499694824219,
        14.4375,
        14.492500305175781,
        14.547499656677246,
        14.602499961853027,
        14.657500267028809,
        14.712499618530273,
        14.767499923706055,
        14.822500228881836,
        14.8774995803833,
        14.932499885559082,
        14.987500190734863,
        15.042499542236328,
        15.09749984741211,
        15.15250015258789,
        15.207500457763672,
        15.262499809265137,
        15.317500114440918,
        15.3725004196167,
        15.427499771118164,
        15.482500076293945,
        15.537500381469727,
        15.592499732971191,
        15.647500038146973,
        15.702500343322754,
        15.757499694824219,
        15.8125,
        15.867500305175781,
        15.922499656677246,
        15.977499961853027,
        16.032499313354492,
        16.087499618530273,
        16.142499923706055,
        16.197500228881836,
        16.252500534057617,
        16.3075008392334,
        16.362499237060547,
        16.417499542236328,
        16.47249984741211,
        16.52750015258789,
        16.582500457763672,
        16.637500762939453,
        16.6924991607666,
        16.747499465942383,
        16.802499771118164,
        16.857500076293945,
        16.912500381469727,
        16.967500686645508,
        17.022499084472656,
        17.077499389648438,
        17.13249969482422,
        17.1875,
        17.24250030517578,
        17.297500610351563,
        17.352500915527344,
        17.407499313354492,
        17.462499618530273,
        17.517499923706055,
        17.572500228881836,
        17.627500534057617,
        17.6825008392334,
        17.737499237060547,
        17.792499542236328,
        17.84749984741211,
        17.90250015258789,
        17.957500457763672,
        18.012500762939453,
        18.0674991607666,
        18.122499465942383,
        18.177499771118164,
        18.232500076293945,
        18.287500381469727,
        18.342500686645508,
        18.397499084472656,
        18.452499389648438,
        18.50749969482422,
        18.5625,
        18.61750030517578,
        18.672500610351563,
        18.727500915527344,
        18.782499313354492,
        18.837499618530273,
        18.892499923706055,
        18.947500228881836,
        19.002500534057617,
        19.0575008392334,
        19.112499237060547,
        19.167499542236328,
        19.22249984741211,
        19.27750015258789,
        19.332500457763672,
        19.387500762939453,
        19.4424991607666,
        19.497499465942383,
        19.552499771118164,
        19.607500076293945,
        19.662500381469727,
        19.717500686645508,
        19.772499084472656,
        19.827499389648438,
        19.88249969482422,
        19.9375,
        19.99250030517578,
        20.047500610351563,
        20.102500915527344,
        20.157499313354492,
        20.212499618530273,
        20.267499923706055,
        20.322500228881836,
        20.377500534057617,
        20.4325008392334,
        20.487499237060547,
        20.542499542236328,
        20.59749984741211,
        20.65250015258789,
        20.707500457763672,
        20.762500762939453,
        20.8174991607666,
        20.872499465942383,
        20.927499771118164,
        20.982500076293945,
        21.037500381469727,
        21.092500686645508,
        21.147499084472656,
        21.202499389648438,
        21.25749969482422,
        21.3125,
        21.36750030517578,
        21.422500610351563,
        21.477500915527344,
        21.532499313354492,
        21.587499618530273,
        21.642499923706055,
        21.697500228881836,
        21.752500534057617,
        21.8075008392334,
        21.862499237060547,
        21.917499542236328,
        21.97249984741211,
        22.02750015258789,
        22.082500457763672,
        22.137500762939453,
        22.1924991607666,
        22.247499465942383,
        22.302499771118164,
        22.357500076293945,
        22.412500381469727,
        22.467500686645508,
        22.522499084472656,
        22.577499389648438,
        22.63249969482422,
        22.6875,
        22.74250030517578,
        22.797500610351563,
        22.852500915527344,
        22.907499313354492,
        22.962499618530273,
        23.017499923706055,
        23.072500228881836,
        23.127500534057617,
        23.1825008392334,
        23.237499237060547,
        23.292499542236328,
        23.34749984741211,
        23.40250015258789,
        23.457500457763672,
        23.512500762939453,
        23.5674991607666,
        23.622499465942383,
        23.677499771118164,
        23.732500076293945,
        23.787500381469727,
        23.842500686645508,
        23.897499084472656,
        23.952499389648438,
        24.00749969482422,
        24.0625,
        24.11750030517578,
        24.172500610351563,
        24.227500915527344,
        24.282499313354492,
        24.337499618530273,
        24.392499923706055,
        24.447500228881836,
        24.502500534057617,
        24.5575008392334,
        24.612499237060547,
        24.667499542236328,
        24.72249984741211,
        24.77750015258789,
        24.832500457763672,
        24.887500762939453,
        24.9424991607666,
        24.997499465942383,
        25.052499771118164,
        25.107500076293945,
        25.162500381469727,
        25.217500686645508,
        25.272499084472656,
        25.327499389648438,
        25.38249969482422,
        25.4375,
        25.49250030517578,
        25.547500610351563,
        25.602500915527344,
        25.657499313354492,
        25.712499618530273,
        25.767499923706055,
        25.822500228881836,
        25.877500534057617,
        25.9325008392334,
        25.987499237060547,
        26.042499542236328,
        26.09749984741211,
        26.15250015258789,
        26.207500457763672,
        26.262500762939453,
        26.3174991607666,
        26.372499465942383,
        26.427499771118164,
        26.482500076293945,
        26.537500381469727,
        26.592500686645508,
        26.647499084472656,
        26.702499389648438,
        26.75749969482422,
        26.8125,
        26.86750030517578,
        26.922500610351563,
        26.977500915527344,
        27.032499313354492,
        27.087499618530273,
        27.142499923706055,
        27.197500228881836,
        27.252500534057617,
        27.3075008392334,
        27.362499237060547,
        27.417499542236328,
        27.47249984741211,
        27.52750015258789,
        27.582500457763672,
        27.637500762939453,
        27.6924991607666,
        27.747499465942383,
        27.802499771118164,
        27.857500076293945,
        27.912500381469727,
        27.967500686645508,
        28.022499084472656,
        28.077499389648438,
        28.13249969482422,
        28.1875,
        28.24250030517578,
        28.3387508392334,
        28.47624969482422,
        28.572500228881836,
        28.627500534057617,
        28.6825008392334,
        28.737499237060547,
        28.792499542236328,
        28.84749984741211,
        28.90250015258789,
        28.957500457763672,
        29.012500762939453,
        29.0674991607666,
        29.122499465942383,
        29.177499771118164,
        29.232500076293945,
        29.287500381469727,
        29.342500686645508,
        29.397499084472656,
        29.452499389648438,
        29.50749969482422,
        29.5625,
        29.61750030517578,
        29.672500610351563,
        29.727500915527344,
        29.782499313354492,
        29.837499618530273,
        29.892499923706055,
        29.947500228881836,
        30.002500534057617,
        30.0575008392334,
        30.112499237060547,
        30.167499542236328,
        30.22249984741211,
        30.27750015258789,
        30.332500457763672,
        30.387500762939453,
        30.4424991607666,
        30.497499465942383,
        30.552499771118164,
        30.607500076293945,
        30.662500381469727,
        30.717500686645508,
        30.772499084472656,
        30.827499389648438,
        30.88249969482422,
        30.9375,
        30.99250030517578,
        31.047500610351563,
        31.102500915527344,
        31.157499313354492,
        31.212499618530273,
        31.267499923706055,
        31.322500228881836,
        31.377500534057617,
        31.4325008392334,
        31.487499237060547,
        31.542499542236328,
        31.59749984741211,
        31.65250015258789,
        31.707500457763672,
        31.762500762939453,
        31.8174991607666,
        31.872499465942383,
        31.927499771118164,
        31.982500076293945,
        32.037498474121094,
        32.092498779296875,
        32.147499084472656,
        32.20249938964844,
        32.25749969482422,
        32.3125,
        32.36750030517578,
        32.42250061035156,
        32.477500915527344,
        32.532501220703125,
        32.587501525878906,
        32.64250183105469,
        32.6974983215332,
        32.752498626708984,
        32.807498931884766,
        32.86249923706055,
        32.91749954223633,
        32.97249984741211,
        33.02750015258789,
        33.08250045776367,
        33.13750076293945,
        33.192501068115234,
        33.247501373291016,
        33.3025016784668,
        33.35749816894531,
        33.412498474121094,
        33.467498779296875,
        33.522499084472656,
        33.57749938964844,
        33.63249969482422,
        33.6875,
        33.74250030517578,
        33.79750061035156,
        33.852500915527344,
        33.907501220703125,
        33.962501525878906,
        34.01750183105469,
        34.0724983215332,
        34.127498626708984,
        34.182498931884766,
        34.23749923706055,
        34.29249954223633,
        34.34749984741211,
        34.40250015258789,
        34.45750045776367,
        34.51250076293945,
        34.567501068115234,
        34.622501373291016,
        34.6775016784668,
        34.73249816894531,
        34.787498474121094,
        34.842498779296875,
        34.897499084472656,
        34.95249938964844,
        35.00749969482422,
        35.0625,
        35.11750030517578,
        35.17250061035156,
        35.227500915527344,
        35.282501220703125,
        35.337501525878906,
        35.39250183105469,
        35.4474983215332,
        35.502498626708984,
        35.557498931884766,
        35.61249923706055,
        35.66749954223633,
        35.72249984741211,
        35.77750015258789,
        35.83250045776367,
        35.88750076293945,
        35.942501068115234,
        35.997501373291016,
        36.0525016784668,
        36.10749816894531,
        36.162498474121094,
        36.217498779296875,
        36.272499084472656,
        36.32749938964844,
        36.38249969482422,
        36.4375,
        36.49250030517578,
        36.54750061035156,
        36.602500915527344,
        36.657501220703125,
        36.712501525878906,
        36.76750183105469,
        36.8224983215332,
        36.877498626708984,
        36.932498931884766,
        36.98749923706055,
        37.04249954223633,
        37.09749984741211,
        37.15250015258789,
        37.20750045776367,
        37.26250076293945,
        37.317501068115234,
        37.372501373291016,
        37.4275016784668,
        37.48249816894531,
        37.537498474121094,
        37.592498779296875,
        37.647499084472656,
        37.70249938964844,
        37.75749969482422,
        37.8125,
        37.86750030517578,
        37.92250061035156,
        37.977500915527344,
        38.032501220703125,
        38.087501525878906,
        38.14250183105469,
        38.1974983215332,
        38.252498626708984,
        38.307498931884766,
        38.36249923706055,
        38.41749954223633,
        38.47249984741211,
        38.52750015258789,
        38.58250045776367,
        38.63750076293945,
        38.692501068115234,
        38.747501373291016,
        38.8025016784668,
        38.85749816894531,
        38.912498474121094,
        38.967498779296875,
        39.022499084472656,
        39.07749938964844,
        39.13249969482422,
        39.1875,
        39.24250030517578,
        39.29750061035156,
        39.352500915527344,
        39.407501220703125,
        39.462501525878906,
        39.51750183105469,
        39.5724983215332,
        39.627498626708984,
        39.682498931884766,
        39.73749923706055,
        39.79249954223633,
        39.84749984741211,
        39.90250015258789,
        39.95750045776367,
        40.01250076293945,
        40.067501068115234,
        40.122501373291016,
        40.1775016784668,
        40.23249816894531,
        40.287498474121094,
        40.342498779296875,
        40.397499084472656,
        40.45249938964844,
        40.50749969482422,
        40.5625,
        40.61750030517578,
        40.67250061035156,
        40.727500915527344,
        40.782501220703125,
        40.837501525878906,
        40.89250183105469,
        40.9474983215332,
        41.002498626708984,
        41.057498931884766,
        41.11249923706055,
        41.16749954223633,
        41.22249984741211,
        41.27750015258789,
        41.33250045776367,
        41.38750076293945,
        41.442501068115234,
        41.497501373291016,
        41.5525016784668,
        41.60749816894531,
        41.662498474121094,
        41.717498779296875,
        41.772499084472656,
        41.82749938964844,
        41.88249969482422,
        41.9375,
        41.99250030517578,
        42.04750061035156,
        42.102500915527344,
        42.157501220703125,
        42.212501525878906,
        42.26750183105469,
        42.3224983215332,
        42.377498626708984,
        42.432498931884766,
        42.48749923706055,
        42.54249954223633
    ],
    "velo_geometry_module_zs": [
        -287.5,
        -275.0,
        -262.5,
        -250.0,
        -237.5,
        -225.0,
        -212.5,
        -200.0,
        -137.5,
        -125.0,
        -62.5,
        -50.0,
        -37.5,
        -25.0,
        -12.5,
        0.0,
        12.5,
        25.0,
        37.5,
        50.0,
        62.5,
        75.0,
        87.5,
        100.0,
        112.5,
        125.0,
        137.5,
        150.0,
        162.5,
        175.0,
        187.5,
        200.0,
        212.5,
        225.0,
        237.5,
        250.0,
        262.5,
        275.0,
        312.5,
        325.0,
        387.5,
        400.0,
        487.5,
        500.0,
        587.5,
        600.0,
        637.5,
        650.0,
        687.5,
        700.0,
        737.5,
        750.0
    ],
    "velo_geometry_n_trans": 12,
    "velo_geometry_x_ltg": [
        -0.7071067690849304,
        0.7071067690849304,
        0.0,
        0.7071067690849304,
        0.7071067690849304,
        0.0,
        0.0,
        0.0,
        -1.0,
        12.9329833984375,
        -40.05759811401367,
        -288.08099365234375,
        0.7071067690849304,
        0.7071067690849304,
        0.0,
        -0.7071067690849304,
        0.7071067690849304,
        0.0,
        0.0,
        0.0,
        1.0,
        -26.3397274017334,
        -20.541452407836914,
        -286.91900634765625,
        -0.7071067690849304,
        0.7071067690849304,
        0.0,
        -0.7071067690849304,
        -0.7071067690849304,
        0.0,
        0.0,
        0.0,
        1.0,
        -9.956063270568848,
        17.16855239868164,
        -286.91900634765625,
        0.7071067690849304,
        0.7071067690849304,
        0.0,
        0.7071067690849304,
        -0.7071067690849304,
        0.0,
        0.0,
        0.0,
        -1.0,
        -49.935882568359375,
        -3.054701328277588,
        -288.08099365234375,
        0.7071067690849304,
        -0.7071067690849304,
        0.0,
        -0.7071067690849304,
        -0.7071067690849304,
        0.0,
        0.0,
        0.0,
        -1.0,
        -12.9329833984375,
        40.05759811401367,
        -275.58099365234375,
        -0.7071067690849304,
        -0.7071067690849304,
        0.0,
        0.7071067690849304,
        -0.7071067690849304,
        0.0,
        0.0,
        0.0,
        1.0,
        26.3397274017334,
        20.541452407836914,
        -274.41900634765625,
        0.7071067690849304,
        -0.7071067690849304,
        0.0,
        0.7071067690849304,
        0.7071067690849304,
        0.0,
        0.0,
        0.0,
        1.0,
        9.956063270568848,
        -17.16855239868164,
        -274.41900634765625,
        -0.7071067690849304,
        -0.7071067690849304,
        0.0,
        -0.7071067690849304,
        0.7071067690849304,
        0.0,
        0.0,
        0.0,
        -1.0,
        49.935882568359375,
        3.054701328277588,
        -275.58099365234375,
        -0.7071067690849304,
        0.7071067690849304,
        0.0,
        0.7071067690849304,
        0.7071067690849304,
        0.0,
        0.0,
        0.0,
        -1.0,
        12.9329833984375,
        -40.05759811401367,
        -263.08099365234375,
        0.7071067690849304,
        0.7071067690849304,
        0.0,
        -0.7071067690849304,
        0.7071067690849304,
        0.0,
        0.0,
        0.0,
        1.0,
        -26.3397274017334,
        -20.541452407836914,
        -261.91900634765625,
        -0.7071067690849304,
        0.7071067690849304,
        0.0,
        -0.7071067690849304,
        -0.7071067690849304,
        0.0,
        0.0,
        0.0,
        1.0,
        -9.956063270568848,
        17.16855239868164,
        -261.91900634765625,
        0.7071067690849304,
        0.7071067690849304,
        0.0,
        0.7071067690849304,
        -0.7071067690849304,
        0.0,
        0.0,
        0.0,
        -1.0,
        -49.935882568359375,
        -3.054701328277588,
        -263.08099365234375,
        0.7071067690849304,
        -0.7071067690849304,
        0.0,
        -0.7071067690849304,
        -0.7071067690849304,
        0.0,
        0.0,
        0.0,
        -1.0,
        -12.9329833984375,
        40.05759811401367,
        -250.58099365234375,
        -0.7071067690849304,
        -0.7071067690849304,
        0.0,
        0.7071067690849304,
        -0.7071067690849304,
        0.0,
        0.0,
        0.0,
        1.0,
        26.3397274017334,
        20.541452407836914,
        -249.41900634765625,
        0.7071067690849304,
        -0.7071067690849304,
        0.0,
        0.7071067690849304,
        0.7071067690849304,
        0.0,
        0.0,
        0.0,
        1.0,
        9.956063270568848,
        -17.16855239868164,
        -249.41900634765625,
        -0.7071067690849304,
        -0.7071067690849304,
        0.0,
        -0.7071067690849304,
        0.7071067690849304,
        0.0,
        0.0,
        0.0,
        -1.0,
        49.935882568359375,
        3.054701328277588,
        -250.58099365234375,
        -0.7071067690849304,
        0.7071067690849304,
        0.0,
        0.7071067690849304,
        0.7071067690849304,
        0.0,
        0.0,
        0.0,
        -1.0,
        12.9329833984375,
        -40.05759811401367,
        -238.08099365234375,
        0.7071067690849304,
        0.7071067690849304,
        0.0,
        -0.7071067690849304,
        0.7071067690849304,
        0.0,
        0.0,
        0.0,
        1.0,
        -26.3397274017334,
        -20.541452407836914,
        -236.91900634765625,
        -0.7071067690849304,
        0.7071067690849304,
        0.0,
        -0.7071067690849304,
        -0.7071067690849304,
        0.0,
        0.0,
        0.0,
        1.0,
        -9.956063270568848,
        17.16855239868164,
        -236.91900634765625,
        0.7071067690849304,
        0.7071067690849304,
        0.0,
        0.7071067690849304,
        -0.7071067690849304,
        0.0,
        0.0,
        0.0,
        -1.0,
        -49.935882568359375,
        -3.054701328277588,
        -238.08099365234375,
        0.7071067690849304,
        -0.7071067690849304,
        0.0,
        -0.7071067690849304,
        -0.7071067690849304,
        0.0,
        0.0,
        0.0,
        -1.0,
        -12.9329833984375,
        40.05759811401367,
        -225.58099365234375,
        -0.7071067690849304,
        -0.7071067690849304,
        0.0,
        0.7071067690849304,
        -0.7071067690849304,
        0.0,
        0.0,
        0.0,
        1.0,
        26.3397274017334,
        20.541452407836914,
        -224.41900634765625,
        0.7071067690849304,
        -0.7071067690849304,
        0.0,
        0.7071067690849304,
        0.7071067690849304,
        0.0,
        0.0,
        0.0,
        1.0,
        9.956063270568848,
        -17.16855239868164,
        -224.41900634765625,
        -0.7071067690849304,
        -0.7071067690849304,
        0.0,
        -0.7071067690849304,
        0.7071067690849304,
        0.0,
        0.0,
        0.0,
        -1.0,
        49.935882568359375,
        3.054701328277588,
        -225.58099365234375,
        -0.7071067690849304,
        0.7071067690849304,
        0.0,
        0.7071067690849304,
        0.7071067690849304,
        0.0,
        0.0,
        0.0,
        -1.0,
        12.9329833984375,
        -40.05759811401367,
        -213.08099365234375,
        0.7071067690849304,
        0.7071067690849304,
        0.0,
        -0.7071067690849304,
        0.7071067690849304,
        0.0,
        0.0,
        0.0,
        1.0,
        -26.3397274017334,
        -20.541452407836914,
        -211.91900634765625,
        -0.7071067690849304,
        0.7071067690849304,
        0.0,
        -0.7071067690849304,
        -0.7071067690849304,
        0.0,
        0.0,
        0.0,
        1.0,
        -9.956063270568848,
        17.16855239868164,
        -211.91900634765625,
        0.7071067690849304,
        0.7071067690849304,
        0.0,
        0.7071067690849304,
        -0.7071067690849304,
        0.0,
        0.0,
        0.0,
        -1.0,
        -49.935882568359375,
        -3.054701328277588,
        -213.08099365234375,
        0.7071067690849304,
        -0.7071067690849304,
        0.0,
        -0.7071067690849304,
        -0.7071067690849304,
        0.0,
        0.0,
        0.0,
        -1.0,
        -12.9329833984375,
        40.05759811401367,
        -200.58099365234375,
        -0.7071067690849304,
        -0.7071067690849304,
        0.0,
        0.7071067690849304,
        -0.7071067690849304,
        0.0,
        0.0,
        0.0,
        1.0,
        26.3397274017334,
        20.541452407836914,
        -199.41900634765625,
        0.7071067690849304,
        -0.7071067690849304,
        0.0,
        0.7071067690849304,
        0.7071067690849304,
        0.0,
        0.0,
        0.0,
        1.0,
        9.956063270568848,
        -17.16855239868164,
        -199.41900634765625,
        -0.7071067690849304,
        -0.7071067690849304,
        0.0,
        -0.7071067690849304,
        0.7071067690849304,
        0.0,
        0.0,
        0.0,
        -1.0,
        49.935882568359375,
        3.054701328277588,
        -200.58099365234375,
        -0.7071067690849304,
        0.7071067690849304,
        0.0,
        0.7071067690849304,
        0.7071067690849304,
        0.0,
        0.0,
        0.0,
        -1.0,
        12.9329833984375,
        -40.05759811401367,
        -138.08099365234375,
        0.7071067690849304,
        0.7071067690849304,
        0.0,
        -0.7071067690849304,
        0.7071067690849304,
        0.0,
        0.0,
        0.0,
        1.0,
        -26.3397274017334,
        -20.541452407836914,
        -136.91900634765625,
        -0.7071067690849304,
        0.7071067690849304,
        0.0,
        -0.7071067690849304,
        -0.7071067690849304,
        0.0,
        0.0,
        0.0,
        1.0,
        -9.956063270568848,
        17.16855239868164,
        -136.91900634765625,
        0.7071067690849304,
        0.7071067690849304,
        0.0,
        0.7071067690849304,
        -0.7071067690849304,
        0.0,
        0.0,
        0.0,
        -1.0,
        -49.935882568359375,
        -3.054701328277588,
        -138.08099365234375,
        0.7071067690849304,
        -0.7071067690849304,
        0.0,
        -0.7071067690849304,
        -0.7071067690849304,
        0.0,
        0.0,
        0.0,
        -1.0,
        -12.9329833984375,
        40.05759811401367,
        -125.58100128173828,
        -0.7071067690849304,
        -0.7071067690849304,
        0.0,
        0.7071067690849304,
        -0.7071067690849304,
        0.0,
        0.0,
        0.0,
        1.0,
        26.3397274017334,
        20.541452407836914,
        -124.41899871826172,
        0.7071067690849304,
        -0.7071067690849304,
        0.0,
        0.7071067690849304,
        0.7071067690849304,
        0.0,
        0.0,
        0.0,
        1.0,
        9.956063270568848,
        -17.16855239868164,
        -124.41899871826172,
        -0.7071067690849304,
        -0.7071067690849304,
        0.0,
        -0.7071067690849304,
        0.7071067690849304,
        0.0,
        0.0,
        0.0,
        -1.0,
        49.935882568359375,
        3.054701328277588,
        -125.58100128173828,
        -0.7071067690849304,
        0.7071067690849304,
        0.0,
        0.7071067690849304,
        0.7071067690849304,
        0.0,
        0.0,
        0.0,
        -1.0,
        12.9329833984375,
        -40.05759811401367,
        -63.08100128173828,
        0.7071067690849304,
        0.7071067690849304,
        0.0,
        -0.7071067690849304,
        0.7071067690849304,
        0.0,
        0.0,
        0.0,
        1.0,
        -26.3397274017334,
        -20.541452407836914,
        -61.91899871826172,
        -0.7071067690849304,
        0.7071067690849304,
        0.0,
        -0.7071067690849304,
        -0.7071067690849304,
        0.0,
        0.0,
        0.0,
        1.0,
        -9.956063270568848,
        17.16855239868164,
        -61.91899871826172,
        0.7071067690849304,
        0.7071067690849304,
        0.0,
        0.7071067690849304,
        -0.7071067690849304,
        0.0,
        0.0,
        0.0,
        -1.0,
        -49.935882568359375,
        -3.054701328277588,
        -63.08100128173828,
        0.7071067690849304,
        -0.7071067690849304,
        0.0,
        -0.7071067690849304,
        -0.7071067690849304,
        0.0,
        0.0,
        0.0,
        -1.0,
        -12.9329833984375,
        40.05759811401367,
        -50.58100128173828,
        -0.7071067690849304,
        -0.7071067690849304,
        0.0,
        0.7071067690849304,
        -0.7071067690849304,
        0.0,
        0.0,
        0.0,
        1.0,
        26.3397274017334,
        20.541452407836914,
        -49.41899871826172,
        0.7071067690849304,
        -0.7071067690849304,
        0.0,
        0.7071067690849304,
        0.7071067690849304,
        0.0,
        0.0,
        0.0,
        1.0,
        9.956063270568848,
        -17.16855239868164,
        -49.41899871826172,
        -0.7071067690849304,
        -0.7071067690849304,
        0.0,
        -0.7071067690849304,
        0.7071067690849304,
        0.0,
        0.0,
        0.0,
        -1.0,
        49.935882568359375,
        3.054701328277588,
        -50.58100128173828,
        -0.7071067690849304,
        0.7071067690849304,
        0.0,
        0.7071067690849304,
        0.7071067690849304,
        0.0,
        0.0,
        0.0,
        -1.0,
        12.9329833984375,
        -40.05759811401367,
        -38.08100128173828,
        0.7071067690849304,
        0.7071067690849304,
        0.0,
        -0.7071067690849304,
        0.7071067690849304,
        0.0,
        0.0,
        0.0,
        1.0,
        -26.3397274017334,
        -20.541452407836914,
        -36.91899871826172,
        -0.7071067690849304,
        0.7071067690849304,
        0.0,
        -0.7071067690849304,
        -0.7071067690849304,
        0.0,
        0.0,
        0.0,
        1.0,
        -9.956063270568848,
        17.16855239868164,
        -36.91899871826172,
        0.7071067690849304,
        0.7071067690849304,
        0.0,
        0.7071067690849304,
        -0.7071067690849304,
        0.0,
        0.0,
        0.0,
        -1.0,
        -49.935882568359375,
        -3.054701328277588,
        -38.08100128173828,
        0.7071067690849304,
        -0.7071067690849304,
        0.0,
        -0.7071067690849304,
        -0.7071067690849304,
        0.0,
        0.0,
        0.0,
        -1.0,
        -12.9329833984375,
        40.05759811401367,
        -25.58099937438965,
        -0.7071067690849304,
        -0.7071067690849304,
        0.0,
        0.7071067690849304,
        -0.7071067690849304,
        0.0,
        0.0,
        0.0,
        1.0,
        26.3397274017334,
        20.541452407836914,
        -24.41900062561035,
        0.7071067690849304,
        -0.7071067690849304,
        0.0,
        0.7071067690849304,
        0.7071067690849304,
        0.0,
        0.0,
        0.0,
        1.0,
        9.956063270568848,
        -17.16855239868164,
        -24.41900062561035,
        -0.7071067690849304,
        -0.7071067690849304,
        0.0,
        -0.7071067690849304,
        0.7071067690849304,
        0.0,
        0.0,
        0.0,
        -1.0,
        49.935882568359375,
        3.054701328277588,
        -25.58099937438965,
        -0.7071067690849304,
        0.7071067690849304,
        0.0,
        0.7071067690849304,
        0.7071067690849304,
        0.0,
        0.0,
        0.0,
        -1.0,
        12.9329833984375,
        -40.05759811401367,
        -13.081000328063965,
        0.7071067690849304,
        0.7071067690849304,
        0.0,
        -0.7071067690849304,
        0.7071067690849304,
        0.0,
        0.0,
        0.0,
        1.0,
        -26.3397274017334,
        -20.541452407836914,
        -11.918999671936035,
        -0.7071067690849304,
        0.7071067690849304,
        0.0,
        -0.7071067690849304,
        -0.7071067690849304,
        0.0,
        0.0,
        0.0,
        1.0,
        -9.956063270568848,
        17.16855239868164,
        -11.918999671936035,
        0.7071067690849304,
        0.7071067690849304,
        0.0,
        0.7071067690849304,
        -0.7071067690849304,
        0.0,
        0.0,
        0.0,
        -1.0,
        -49.935882568359375,
        -3.054701328277588,
        -13.081000328063965,
        0.7071067690849304,
        -0.7071067690849304,
        0.0,
        -0.7071067690849304,
        -0.7071067690849304,
        0.0,
        0.0,
        0.0,
        -1.0,
        -12.9329833984375,
        40.05759811401367,
        -0.5809999704360962,
        -0.7071067690849304,
        -0.7071067690849304,
        0.0,
        0.7071067690849304,
        -0.7071067690849304,
        0.0,
        0.0,
        0.0,
        1.0,
        26.3397274017334,
        20.541452407836914,
        0.5809999704360962,
        0.7071067690849304,
        -0.7071067690849304,
        0.0,
        0.7071067690849304,
        0.7071067690849304,
        0.0,
        0.0,
        0.0,
        1.0,
        9.956063270568848,
        -17.16855239868164,
        0.5809999704360962,
        -0.7071067690849304,
        -0.7071067690849304,
        0.0,
        -0.7071067690849304,
        0.7071067690849304,
        0.0,
        0.0,
        0.0,
        -1.0,
        49.935882568359375,
        3.054701328277588,
        -0.5809999704360962,
        -0.7071067690849304,
        0.7071067690849304,
        0.0,
        0.7071067690849304,
        0.7071067690849304,
        0.0,
        0.0,
        0.0,
        -1.0,
        12.9329833984375,
        -40.05759811401367,
        11.918999671936035,
        0.7071067690849304,
        0.7071067690849304,
        0.0,
        -0.7071067690849304,
        0.7071067690849304,
        0.0,
        0.0,
        0.0,
        1.0,
        -26.3397274017334,
        -20.541452407836914,
        13.081000328063965,
        -0.7071067690849304,
        0.7071067690849304,
        0.0,
        -0.7071067690849304,
        -0.7071067690849304,
        0.0,
        0.0,
        0.0,
        1.0,
        -9.956063270568848,
        17.16855239868164,
        13.081000328063965,
        0.7071067690849304,
        0.7071067690849304,
        0.0,
        0.7071067690849304,
        -0.7071067690849304,
        0.0,
        0.0,
        0.0,
        -1.0,
        -49.935882568359375,
        -3.054701328277588,
        11.918999671936035,
        0.7071067690849304,
        -0.7071067690849304,
        0.0,
        -0.7071067690849304,
        -0.7071067690849304,
        0.0,
        0.0,
        0.0,
        -1.0,
        -12.9329833984375,
        40.05759811401367,
        24.41900062561035,
        -0.7071067690849304,
        -0.7071067690849304,
        0.0,
        0.7071067690849304,
        -0.7071067690849304,
        0.0,
        0.0,
        0.0,
        1.0,
        26.3397274017334,
        20.541452407836914,
        25.58099937438965,
        0.7071067690849304,
        -0.7071067690849304,
        0.0,
        0.7071067690849304,
        0.7071067690849304,
        0.0,
        0.0,
        0.0,
        1.0,
        9.956063270568848,
        -17.16855239868164,
        25.58099937438965,
        -0.7071067690849304,
        -0.7071067690849304,
        0.0,
        -0.7071067690849304,
        0.7071067690849304,
        0.0,
        0.0,
        0.0,
        -1.0,
        49.935882568359375,
        3.054701328277588,
        24.41900062561035,
        -0.7071067690849304,
        0.7071067690849304,
        0.0,
        0.7071067690849304,
        0.7071067690849304,
        0.0,
        0.0,
        0.0,
        -1.0,
        12.9329833984375,
        -40.05759811401367,
        36.91899871826172,
        0.7071067690849304,
        0.7071067690849304,
        0.0,
        -0.7071067690849304,
        0.7071067690849304,
        0.0,
        0.0,
        0.0,
        1.0,
        -26.3397274017334,
        -20.541452407836914,
        38.08100128173828,
        -0.7071067690849304,
        0.7071067690849304,
        0.0,
        -0.7071067690849304,
        -0.7071067690849304,
        0.0,
        0.0,
        0.0,
        1.0,
        -9.956063270568848,
        17.16855239868164,
        38.08100128173828,
        0.7071067690849304,
        0.7071067690849304,
        0.0,
        0.7071067690849304,
        -0.7071067690849304,
        0.0,
        0.0,
        0.0,
        -1.0,
        -49.935882568359375,
        -3.054701328277588,
        36.91899871826172,
        0.7071067690849304,
        -0.7071067690849304,
        0.0,
        -0.7071067690849304,
        -0.7071067690849304,
        0.0,
        0.0,
        0.0,
        -1.0,
        -12.9329833984375,
        40.05759811401367,
        49.41899871826172,
        -0.7071067690849304,
        -0.7071067690849304,
        0.0,
        0.7071067690849304,
        -0.7071067690849304,
        0.0,
        0.0,
        0.0,
        1.0,
        26.3397274017334,
        20.541452407836914,
        50.58100128173828,
        0.7071067690849304,
        -0.7071067690849304,
        0.0,
        0.7071067690849304,
        0.7071067690849304,
        0.0,
        0.0,
        0.0,
        1.0,
        9.956063270568848,
        -17.16855239868164,
        50.58100128173828,
        -0.7071067690849304,
        -0.7071067690849304,
        0.0,
        -0.7071067690849304,
        0.7071067690849304,
        0.0,
        0.0,
        0.0,
        -1.0,
        49.935882568359375,
        3.054701328277588,
        49.41899871826172,
        -0.7071067690849304,
        0.7071067690849304,
        0.0,
        0.7071067690849304,
        0.7071067690849304,
        0.0,
        0.0,
        0.0,
        -1.0,
        12.9329833984375,
        -40.05759811401367,
        61.91899871826172,
        0.7071067690849304,
        0.7071067690849304,
        0.0,
        -0.7071067690849304,
        0.7071067690849304,
        0.0,
        0.0,
        0.0,
        1.0,
        -26.3397274017334,
        -20.541452407836914,
        63.08100128173828,
        -0.7071067690849304,
        0.7071067690849304,
        0.0,
        -0.7071067690849304,
        -0.7071067690849304,
        0.0,
        0.0,
        0.0,
        1.0,
        -9.956063270568848,
        17.16855239868164,
        63.08100128173828,
        0.7071067690849304,
        0.7071067690849304,
        0.0,
        0.7071067690849304,
        -0.7071067690849304,
        0.0,
        0.0,
        0.0,
        -1.0,
        -49.935882568359375,
        -3.054701328277588,
        61.91899871826172,
        0.7071067690849304,
        -0.7071067690849304,
        0.0,
        -0.7071067690849304,
        -0.7071067690849304,
        0.0,
        0.0,
        0.0,
        -1.0,
        -12.9329833984375,
        40.05759811401367,
        74.41899871826172,
        -0.7071067690849304,
        -0.7071067690849304,
        0.0,
        0.7071067690849304,
        -0.7071067690849304,
        0.0,
        0.0,
        0.0,
        1.0,
        26.3397274017334,
        20.541452407836914,
        75.58100128173828,
        0.7071067690849304,
        -0.7071067690849304,
        0.0,
        0.7071067690849304,
        0.7071067690849304,
        0.0,
        0.0,
        0.0,
        1.0,
        9.956063270568848,
        -17.16855239868164,
        75.58100128173828,
        -0.7071067690849304,
        -0.7071067690849304,
        0.0,
        -0.7071067690849304,
        0.7071067690849304,
        0.0,
        0.0,
        0.0,
        -1.0,
        49.935882568359375,
        3.054701328277588,
        74.41899871826172,
        -0.7071067690849304,
        0.7071067690849304,
        0.0,
        0.7071067690849304,
        0.7071067690849304,
        0.0,
        0.0,
        0.0,
        -1.0,
        12.9329833984375,
        -40.05759811401367,
        86.91899871826172,
        0.7071067690849304,
        0.7071067690849304,
        0.0,
        -0.7071067690849304,
        0.7071067690849304,
        0.0,
        0.0,
        0.0,
        1.0,
        -26.3397274017334,
        -20.541452407836914,
        88.08100128173828,
        -0.7071067690849304,
        0.7071067690849304,
        0.0,
        -0.7071067690849304,
        -0.7071067690849304,
        0.0,
        0.0,
        0.0,
        1.0,
        -9.956063270568848,
        17.16855239868164,
        88.08100128173828,
        0.7071067690849304,
        0.7071067690849304,
        0.0,
        0.7071067690849304,
        -0.7071067690849304,
        0.0,
        0.0,
        0.0,
        -1.0,
        -49.935882568359375,
        -3.054701328277588,
        86.91899871826172,
        0.7071067690849304,
        -0.7071067690849304,
        0.0,
        -0.7071067690849304,
        -0.7071067690849304,
        0.0,
        0.0,
        0.0,
        -1.0,
        -12.9329833984375,
        40.05759811401367,
        99.41899871826172,
        -0.7071067690849304,
        -0.7071067690849304,
        0.0,
        0.7071067690849304,
        -0.7071067690849304,
        0.0,
        0.0,
        0.0,
        1.0,
        26.3397274017334,
        20.541452407836914,
        100.58100128173828,
        0.7071067690849304,
        -0.7071067690849304,
        0.0,
        0.7071067690849304,
        0.7071067690849304,
        0.0,
        0.0,
        0.0,
        1.0,
        9.956063270568848,
        -17.16855239868164,
        100.58100128173828,
        -0.7071067690849304,
        -0.7071067690849304,
        0.0,
        -0.7071067690849304,
        0.7071067690849304,
        0.0,
        0.0,
        0.0,
        -1.0,
        49.935882568359375,
        3.054701328277588,
        99.41899871826172,
        -0.7071067690849304,
        0.7071067690849304,
        0.0,
        0.7071067690849304,
        0.7071067690849304,
        0.0,
        0.0,
        0.0,
        -1.0,
        12.9329833984375,
        -40.05759811401367,
        111.91899871826172,
        0.7071067690849304,
        0.7071067690849304,
        0.0,
        -0.7071067690849304,
        0.7071067690849304,
        0.0,
        0.0,
        0.0,
        1.0,
        -26.3397274017334,
        -20.541452407836914,
        113.08100128173828,
        -0.7071067690849304,
        0.7071067690849304,
        0.0,
        -0.7071067690849304,
        -0.7071067690849304,
        0.0,
        0.0,
        0.0,
        1.0,
        -9.956063270568848,
        17.16855239868164,
        113.08100128173828,
        0.7071067690849304,
        0.7071067690849304,
        0.0,
        0.7071067690849304,
        -0.7071067690849304,
        0.0,
        0.0,
        0.0,
        -1.0,
        -49.935882568359375,
        -3.054701328277588,
        111.91899871826172,
        0.7071067690849304,
        -0.7071067690849304,
        0.0,
        -0.7071067690849304,
        -0.7071067690849304,
        0.0,
        0.0,
        0.0,
        -1.0,
        -12.9329833984375,
        40.05759811401367,
        124.41899871826172,
        -0.7071067690849304,
        -0.7071067690849304,
        0.0,
        0.7071067690849304,
        -0.7071067690849304,
        0.0,
        0.0,
        0.0,
        1.0,
        26.3397274017334,
        20.541452407836914,
        125.58100128173828,
        0.7071067690849304,
        -0.7071067690849304,
        0.0,
        0.7071067690849304,
        0.7071067690849304,
        0.0,
        0.0,
        0.0,
        1.0,
        9.956063270568848,
        -17.16855239868164,
        125.58100128173828,
        -0.7071067690849304,
        -0.7071067690849304,
        0.0,
        -0.7071067690849304,
        0.7071067690849304,
        0.0,
        0.0,
        0.0,
        -1.0,
        49.935882568359375,
        3.054701328277588,
        124.41899871826172,
        -0.7071067690849304,
        0.7071067690849304,
        0.0,
        0.7071067690849304,
        0.7071067690849304,
        0.0,
        0.0,
        0.0,
        -1.0,
        12.9329833984375,
        -40.05759811401367,
        136.91900634765625,
        0.7071067690849304,
        0.7071067690849304,
        0.0,
        -0.7071067690849304,
        0.7071067690849304,
        0.0,
        0.0,
        0.0,
        1.0,
        -26.3397274017334,
        -20.541452407836914,
        138.08099365234375,
        -0.7071067690849304,
        0.7071067690849304,
        0.0,
        -0.7071067690849304,
        -0.7071067690849304,
        0.0,
        0.0,
        0.0,
        1.0,
        -9.956063270568848,
        17.16855239868164,
        138.08099365234375,
        0.7071067690849304,
        0.7071067690849304,
        0.0,
        0.7071067690849304,
        -0.7071067690849304,
        0.0,
        0.0,
        0.0,
        -1.0,
        -49.935882568359375,
        -3.054701328277588,
        136.91900634765625,
        0.7071067690849304,
        -0.7071067690849304,
        0.0,
        -0.7071067690849304,
        -0.7071067690849304,
        0.0,
        0.0,
        0.0,
        -1.0,
        -12.9329833984375,
        40.05759811401367,
        149.41900634765625,
        -0.7071067690849304,
        -0.7071067690849304,
        0.0,
        0.7071067690849304,
        -0.7071067690849304,
        0.0,
        0.0,
        0.0,
        1.0,
        26.3397274017334,
        20.541452407836914,
        150.58099365234375,
        0.7071067690849304,
        -0.7071067690849304,
        0.0,
        0.7071067690849304,
        0.7071067690849304,
        0.0,
        0.0,
        0.0,
        1.0,
        9.956063270568848,
        -17.16855239868164,
        150.58099365234375,
        -0.7071067690849304,
        -0.7071067690849304,
        0.0,
        -0.7071067690849304,
        0.7071067690849304,
        0.0,
        0.0,
        0.0,
        -1.0,
        49.935882568359375,
        3.054701328277588,
        149.41900634765625,
        -0.7071067690849304,
        0.7071067690849304,
        0.0,
        0.7071067690849304,
        0.7071067690849304,
        0.0,
        0.0,
        0.0,
        -1.0,
        12.9329833984375,
        -40.05759811401367,
        161.91900634765625,
        0.7071067690849304,
        0.7071067690849304,
        0.0,
        -0.7071067690849304,
        0.7071067690849304,
        0.0,
        0.0,
        0.0,
        1.0,
        -26.3397274017334,
        -20.541452407836914,
        163.08099365234375,
        -0.7071067690849304,
        0.7071067690849304,
        0.0,
        -0.7071067690849304,
        -0.7071067690849304,
        0.0,
        0.0,
        0.0,
        1.0,
        -9.956063270568848,
        17.16855239868164,
        163.08099365234375,
        0.7071067690849304,
        0.7071067690849304,
        0.0,
        0.7071067690849304,
        -0.7071067690849304,
        0.0,
        0.0,
        0.0,
        -1.0,
        -49.935882568359375,
        -3.054701328277588,
        161.91900634765625,
        0.7071067690849304,
        -0.7071067690849304,
        0.0,
        -0.7071067690849304,
        -0.7071067690849304,
        0.0,
        0.0,
        0.0,
        -1.0,
        -12.9329833984375,
        40.05759811401367,
        174.41900634765625,
        -0.7071067690849304,
        -0.7071067690849304,
        0.0,
        0.7071067690849304,
        -0.7071067690849304,
        0.0,
        0.0,
        0.0,
        1.0,
        26.3397274017334,
        20.541452407836914,
        175.58099365234375,
        0.7071067690849304,
        -0.7071067690849304,
        0.0,
        0.7071067690849304,
        0.7071067690849304,
        0.0,
        0.0,
        0.0,
        1.0,
        9.956063270568848,
        -17.16855239868164,
        175.58099365234375,
        -0.7071067690849304,
        -0.7071067690849304,
        0.0,
        -0.7071067690849304,
        0.7071067690849304,
        0.0,
        0.0,
        0.0,
        -1.0,
        49.935882568359375,
        3.054701328277588,
        174.41900634765625,
        -0.7071067690849304,
        0.7071067690849304,
        0.0,
        0.7071067690849304,
        0.7071067690849304,
        0.0,
        0.0,
        0.0,
        -1.0,
        12.9329833984375,
        -40.05759811401367,
        186.91900634765625,
        0.7071067690849304,
        0.7071067690849304,
        0.0,
        -0.7071067690849304,
        0.7071067690849304,
        0.0,
        0.0,
        0.0,
        1.0,
        -26.3397274017334,
        -20.541452407836914,
        188.08099365234375,
        -0.7071067690849304,
        0.7071067690849304,
        0.0,
        -0.7071067690849304,
        -0.7071067690849304,
        0.0,
        0.0,
        0.0,
        1.0,
        -9.956063270568848,
        17.16855239868164,
        188.08099365234375,
        0.7071067690849304,
        0.7071067690849304,
        0.0,
        0.7071067690849304,
        -0.7071067690849304,
        0.0,
        0.0,
        0.0,
        -1.0,
        -49.935882568359375,
        -3.054701328277588,
        186.91900634765625,
        0.7071067690849304,
        -0.7071067690849304,
        0.0,
        -0.7071067690849304,
        -0.7071067690849304,
        0.0,
        0.0,
        0.0,
        -1.0,
        -12.9329833984375,
        40.05759811401367,
        199.41900634765625,
        -0.7071067690849304,
        -0.7071067690849304,
        0.0,
        0.7071067690849304,
        -0.7071067690849304,
        0.0,
        0.0,
        0.0,
        1.0,
        26.3397274017334,
        20.541452407836914,
        200.58099365234375,
        0.7071067690849304,
        -0.7071067690849304,
        0.0,
        0.7071067690849304,
        0.7071067690849304,
        0.0,
        0.0,
        0.0,
        1.0,
        9.956063270568848,
        -17.16855239868164,
        200.58099365234375,
        -0.7071067690849304,
        -0.7071067690849304,
        0.0,
        -0.7071067690849304,
        0.7071067690849304,
        0.0,
        0.0,
        0.0,
        -1.0,
        49.935882568359375,
        3.054701328277588,
        199.41900634765625,
        -0.7071067690849304,
        0.7071067690849304,
        0.0,
        0.7071067690849304,
        0.7071067690849304,
        0.0,
        0.0,
        0.0,
        -1.0,
        12.9329833984375,
        -40.05759811401367,
        211.91900634765625,
        0.7071067690849304,
        0.7071067690849304,
        0.0,
        -0.7071067690849304,
        0.7071067690849304,
        0.0,
        0.0,
        0.0,
        1.0,
        -26.3397274017334,
        -20.541452407836914,
        213.08099365234375,
        -0.7071067690849304,
        0.7071067690849304,
        0.0,
        -0.7071067690849304,
        -0.7071067690849304,
        0.0,
        0.0,
        0.0,
        1.0,
        -9.956063270568848,
        17.16855239868164,
        213.08099365234375,
        0.7071067690849304,
        0.7071067690849304,
        0.0,
        0.7071067690849304,
        -0.7071067690849304,
        0.0,
        0.0,
        0.0,
        -1.0,
        -49.935882568359375,
        -3.054701328277588,
        211.91900634765625,
        0.7071067690849304,
        -0.7071067690849304,
        0.0,
        -0.7071067690849304,
        -0.7071067690849304,
        0.0,
        0.0,
        0.0,
        -1.0,
        -12.9329833984375,
        40.05759811401367,
        224.41900634765625,
        -0.7071067690849304,
        -0.7071067690849304,
        0.0,
        0.7071067690849304,
        -0.7071067690849304,
        0.0,
        0.0,
        0.0,
        1.0,
        26.3397274017334,
        20.541452407836914,
        225.58099365234375,
        0.7071067690849304,
        -0.7071067690849304,
        0.0,
        0.7071067690849304,
        0.7071067690849304,
        0.0,
        0.0,
        0.0,
        1.0,
        9.956063270568848,
        -17.16855239868164,
        225.58099365234375,
        -0.7071067690849304,
        -0.7071067690849304,
        0.0,
        -0.7071067690849304,
        0.7071067690849304,
        0.0,
        0.0,
        0.0,
        -1.0,
        49.935882568359375,
        3.054701328277588,
        224.41900634765625,
        -0.7071067690849304,
        0.7071067690849304,
        0.0,
        0.7071067690849304,
        0.7071067690849304,
        0.0,
        0.0,
        0.0,
        -1.0,
        12.9329833984375,
        -40.05759811401367,
        236.91900634765625,
        0.7071067690849304,
        0.7071067690849304,
        0.0,
        -0.7071067690849304,
        0.7071067690849304,
        0.0,
        0.0,
        0.0,
        1.0,
        -26.3397274017334,
        -20.541452407836914,
        238.08099365234375,
        -0.7071067690849304,
        0.7071067690849304,
        0.0,
        -0.7071067690849304,
        -0.7071067690849304,
        0.0,
        0.0,
        0.0,
        1.0,
        -9.956063270568848,
        17.16855239868164,
        238.08099365234375,
        0.7071067690849304,
        0.7071067690849304,
        0.0,
        0.7071067690849304,
        -0.7071067690849304,
        0.0,
        0.0,
        0.0,
        -1.0,
        -49.935882568359375,
        -3.054701328277588,
        236.91900634765625,
        0.7071067690849304,
        -0.7071067690849304,
        0.0,
        -0.7071067690849304,
        -0.7071067690849304,
        0.0,
        0.0,
        0.0,
        -1.0,
        -12.9329833984375,
        40.05759811401367,
        249.41900634765625,
        -0.7071067690849304,
        -0.7071067690849304,
        0.0,
        0.7071067690849304,
        -0.7071067690849304,
        0.0,
        0.0,
        0.0,
        1.0,
        26.3397274017334,
        20.541452407836914,
        250.58099365234375,
        0.7071067690849304,
        -0.7071067690849304,
        0.0,
        0.7071067690849304,
        0.7071067690849304,
        0.0,
        0.0,
        0.0,
        1.0,
        9.956063270568848,
        -17.16855239868164,
        250.58099365234375,
        -0.7071067690849304,
        -0.7071067690849304,
        0.0,
        -0.7071067690849304,
        0.7071067690849304,
        0.0,
        0.0,
        0.0,
        -1.0,
        49.935882568359375,
        3.054701328277588,
        249.41900634765625,
        -0.7071067690849304,
        0.7071067690849304,
        0.0,
        0.7071067690849304,
        0.7071067690849304,
        0.0,
        0.0,
        0.0,
        -1.0,
        12.9329833984375,
        -40.05759811401367,
        261.91900634765625,
        0.7071067690849304,
        0.7071067690849304,
        0.0,
        -0.7071067690849304,
        0.7071067690849304,
        0.0,
        0.0,
        0.0,
        1.0,
        -26.3397274017334,
        -20.541452407836914,
        263.08099365234375,
        -0.7071067690849304,
        0.7071067690849304,
        0.0,
        -0.7071067690849304,
        -0.7071067690849304,
        0.0,
        0.0,
        0.0,
        1.0,
        -9.956063270568848,
        17.16855239868164,
        263.08099365234375,
        0.7071067690849304,
        0.7071067690849304,
        0.0,
        0.7071067690849304,
        -0.7071067690849304,
        0.0,
        0.0,
        0.0,
        -1.0,
        -49.935882568359375,
        -3.054701328277588,
        261.91900634765625,
        0.7071067690849304,
        -0.7071067690849304,
        0.0,
        -0.7071067690849304,
        -0.7071067690849304,
        0.0,
        0.0,
        0.0,
        -1.0,
        -12.9329833984375,
        40.05759811401367,
        274.41900634765625,
        -0.7071067690849304,
        -0.7071067690849304,
        0.0,
        0.7071067690849304,
        -0.7071067690849304,
        0.0,
        0.0,
        0.0,
        1.0,
        26.3397274017334,
        20.541452407836914,
        275.58099365234375,
        0.7071067690849304,
        -0.7071067690849304,
        0.0,
        0.7071067690849304,
        0.7071067690849304,
        0.0,
        0.0,
        0.0,
        1.0,
        9.956063270568848,
        -17.16855239868164,
        275.58099365234375,
        -0.7071067690849304,
        -0.7071067690849304,
        0.0,
        -0.7071067690849304,
        0.7071067690849304,
        0.0,
        0.0,
        0.0,
        -1.0,
        49.935882568359375,
        3.054701328277588,
        274.41900634765625,
        -0.7071067690849304,
        0.7071067690849304,
        0.0,
        0.7071067690849304,
        0.7071067690849304,
        0.0,
        0.0,
        0.0,
        -1.0,
        12.9329833984375,
        -40.05759811401367,
        311.91900634765625,
        0.7071067690849304,
        0.7071067690849304,
        0.0,
        -0.7071067690849304,
        0.7071067690849304,
        0.0,
        0.0,
        0.0,
        1.0,
        -26.3397274017334,
        -20.541452407836914,
        313.08099365234375,
        -0.7071067690849304,
        0.7071067690849304,
        0.0,
        -0.7071067690849304,
        -0.7071067690849304,
        0.0,
        0.0,
        0.0,
        1.0,
        -9.956063270568848,
        17.16855239868164,
        313.08099365234375,
        0.7071067690849304,
        0.7071067690849304,
        0.0,
        0.7071067690849304,
        -0.7071067690849304,
        0.0,
        0.0,
        0.0,
        -1.0,
        -49.935882568359375,
        -3.054701328277588,
        311.91900634765625,
        0.7071067690849304,
        -0.7071067690849304,
        0.0,
        -0.7071067690849304,
        -0.7071067690849304,
        0.0,
        0.0,
        0.0,
        -1.0,
        -12.9329833984375,
        40.05759811401367,
        324.41900634765625,
        -0.7071067690849304,
        -0.7071067690849304,
        0.0,
        0.7071067690849304,
        -0.7071067690849304,
        0.0,
        0.0,
        0.0,
        1.0,
        26.3397274017334,
        20.541452407836914,
        325.58099365234375,
        0.7071067690849304,
        -0.7071067690849304,
        0.0,
        0.7071067690849304,
        0.7071067690849304,
        0.0,
        0.0,
        0.0,
        1.0,
        9.956063270568848,
        -17.16855239868164,
        325.58099365234375,
        -0.7071067690849304,
        -0.7071067690849304,
        0.0,
        -0.7071067690849304,
        0.7071067690849304,
        0.0,
        0.0,
        0.0,
        -1.0,
        49.935882568359375,
        3.054701328277588,
        324.41900634765625,
        -0.7071067690849304,
        0.7071067690849304,
        0.0,
        0.7071067690849304,
        0.7071067690849304,
        0.0,
        0.0,
        0.0,
        -1.0,
        12.9329833984375,
        -40.05759811401367,
        386.91900634765625,
        0.7071067690849304,
        0.7071067690849304,
        0.0,
        -0.7071067690849304,
        0.7071067690849304,
        0.0,
        0.0,
        0.0,
        1.0,
        -26.3397274017334,
        -20.541452407836914,
        388.08099365234375,
        -0.7071067690849304,
        0.7071067690849304,
        0.0,
        -0.7071067690849304,
        -0.7071067690849304,
        0.0,
        0.0,
        0.0,
        1.0,
        -9.956063270568848,
        17.16855239868164,
        388.08099365234375,
        0.7071067690849304,
        0.7071067690849304,
        0.0,
        0.7071067690849304,
        -0.7071067690849304,
        0.0,
        0.0,
        0.0,
        -1.0,
        -49.935882568359375,
        -3.054701328277588,
        386.91900634765625,
        0.7071067690849304,
        -0.7071067690849304,
        0.0,
        -0.7071067690849304,
        -0.7071067690849304,
        0.0,
        0.0,
        0.0,
        -1.0,
        -12.9329833984375,
        40.05759811401367,
        399.41900634765625,
        -0.7071067690849304,
        -0.7071067690849304,
        0.0,
        0.7071067690849304,
        -0.7071067690849304,
        0.0,
        0.0,
        0.0,
        1.0,
        26.3397274017334,
        20.541452407836914,
        400.58099365234375,
        0.7071067690849304,
        -0.7071067690849304,
        0.0,
        0.7071067690849304,
        0.7071067690849304,
        0.0,
        0.0,
        0.0,
        1.0,
        9.956063270568848,
        -17.16855239868164,
        400.58099365234375,
        -0.7071067690849304,
        -0.7071067690849304,
        0.0,
        -0.7071067690849304,
        0.7071067690849304,
        0.0,
        0.0,
        0.0,
        -1.0,
        49.935882568359375,
        3.054701328277588,
        399.41900634765625,
        -0.7071067690849304,
        0.7071067690849304,
        0.0,
        0.7071067690849304,
        0.7071067690849304,
        0.0,
        0.0,
        0.0,
        -1.0,
        12.9329833984375,
        -40.05759811401367,
        486.91900634765625,
        0.7071067690849304,
        0.7071067690849304,
        0.0,
        -0.7071067690849304,
        0.7071067690849304,
        0.0,
        0.0,
        0.0,
        1.0,
        -26.3397274017334,
        -20.541452407836914,
        488.08099365234375,
        -0.7071067690849304,
        0.7071067690849304,
        0.0,
        -0.7071067690849304,
        -0.7071067690849304,
        0.0,
        0.0,
        0.0,
        1.0,
        -9.956063270568848,
        17.16855239868164,
        488.08099365234375,
        0.7071067690849304,
        0.7071067690849304,
        0.0,
        0.7071067690849304,
        -0.7071067690849304,
        0.0,
        0.0,
        0.0,
        -1.0,
        -49.935882568359375,
        -3.054701328277588,
        486.91900634765625,
        0.7071067690849304,
        -0.7071067690849304,
        0.0,
        -0.7071067690849304,
        -0.7071067690849304,
        0.0,
        0.0,
        0.0,
        -1.0,
        -12.9329833984375,
        40.05759811401367,
        499.41900634765625,
        -0.7071067690849304,
        -0.7071067690849304,
        0.0,
        0.7071067690849304,
        -0.7071067690849304,
        0.0,
        0.0,
        0.0,
        1.0,
        26.3397274017334,
        20.541452407836914,
        500.58099365234375,
        0.7071067690849304,
        -0.7071067690849304,
        0.0,
        0.7071067690849304,
        0.7071067690849304,
        0.0,
        0.0,
        0.0,
        1.0,
        9.956063270568848,
        -17.16855239868164,
        500.58099365234375,
        -0.7071067690849304,
        -0.7071067690849304,
        0.0,
        -0.7071067690849304,
        0.7071067690849304,
        0.0,
        0.0,
        0.0,
        -1.0,
        49.935882568359375,
        3.054701328277588,
        499.41900634765625,
        -0.7071067690849304,
        0.7071067690849304,
        0.0,
        0.7071067690849304,
        0.7071067690849304,
        0.0,
        0.0,
        0.0,
        -1.0,
        12.9329833984375,
        -40.05759811401367,
        586.9190063476563,
        0.7071067690849304,
        0.7071067690849304,
        0.0,
        -0.7071067690849304,
        0.7071067690849304,
        0.0,
        0.0,
        0.0,
        1.0,
        -26.3397274017334,
        -20.541452407836914,
        588.0809936523438,
        -0.7071067690849304,
        0.7071067690849304,
        0.0,
        -0.7071067690849304,
        -0.7071067690849304,
        0.0,
        0.0,
        0.0,
        1.0,
        -9.956063270568848,
        17.16855239868164,
        588.0809936523438,
        0.7071067690849304,
        0.7071067690849304,
        0.0,
        0.7071067690849304,
        -0.7071067690849304,
        0.0,
        0.0,
        0.0,
        -1.0,
        -49.935882568359375,
        -3.054701328277588,
        586.9190063476563,
        0.7071067690849304,
        -0.7071067690849304,
        0.0,
        -0.7071067690849304,
        -0.7071067690849304,
        0.0,
        0.0,
        0.0,
        -1.0,
        -12.9329833984375,
        40.05759811401367,
        599.4190063476563,
        -0.7071067690849304,
        -0.7071067690849304,
        0.0,
        0.7071067690849304,
        -0.7071067690849304,
        0.0,
        0.0,
        0.0,
        1.0,
        26.3397274017334,
        20.541452407836914,
        600.5809936523438,
        0.7071067690849304,
        -0.7071067690849304,
        0.0,
        0.7071067690849304,
        0.7071067690849304,
        0.0,
        0.0,
        0.0,
        1.0,
        9.956063270568848,
        -17.16855239868164,
        600.5809936523438,
        -0.7071067690849304,
        -0.7071067690849304,
        0.0,
        -0.7071067690849304,
        0.7071067690849304,
        0.0,
        0.0,
        0.0,
        -1.0,
        49.935882568359375,
        3.054701328277588,
        599.4190063476563,
        -0.7071067690849304,
        0.7071067690849304,
        0.0,
        0.7071067690849304,
        0.7071067690849304,
        0.0,
        0.0,
        0.0,
        -1.0,
        12.9329833984375,
        -40.05759811401367,
        636.9190063476563,
        0.7071067690849304,
        0.7071067690849304,
        0.0,
        -0.7071067690849304,
        0.7071067690849304,
        0.0,
        0.0,
        0.0,
        1.0,
        -26.3397274017334,
        -20.541452407836914,
        638.0809936523438,
        -0.7071067690849304,
        0.7071067690849304,
        0.0,
        -0.7071067690849304,
        -0.7071067690849304,
        0.0,
        0.0,
        0.0,
        1.0,
        -9.956063270568848,
        17.16855239868164,
        638.0809936523438,
        0.7071067690849304,
        0.7071067690849304,
        0.0,
        0.7071067690849304,
        -0.7071067690849304,
        0.0,
        0.0,
        0.0,
        -1.0,
        -49.935882568359375,
        -3.054701328277588,
        636.9190063476563,
        0.7071067690849304,
        -0.7071067690849304,
        0.0,
        -0.7071067690849304,
        -0.7071067690849304,
        0.0,
        0.0,
        0.0,
        -1.0,
        -12.9329833984375,
        40.05759811401367,
        649.4190063476563,
        -0.7071067690849304,
        -0.7071067690849304,
        0.0,
        0.7071067690849304,
        -0.7071067690849304,
        0.0,
        0.0,
        0.0,
        1.0,
        26.3397274017334,
        20.541452407836914,
        650.5809936523438,
        0.7071067690849304,
        -0.7071067690849304,
        0.0,
        0.7071067690849304,
        0.7071067690849304,
        0.0,
        0.0,
        0.0,
        1.0,
        9.956063270568848,
        -17.16855239868164,
        650.5809936523438,
        -0.7071067690849304,
        -0.7071067690849304,
        0.0,
        -0.7071067690849304,
        0.7071067690849304,
        0.0,
        0.0,
        0.0,
        -1.0,
        49.935882568359375,
        3.054701328277588,
        649.4190063476563,
        -0.7071067690849304,
        0.7071067690849304,
        0.0,
        0.7071067690849304,
        0.7071067690849304,
        0.0,
        0.0,
        0.0,
        -1.0,
        12.9329833984375,
        -40.05759811401367,
        686.9190063476563,
        0.7071067690849304,
        0.7071067690849304,
        0.0,
        -0.7071067690849304,
        0.7071067690849304,
        0.0,
        0.0,
        0.0,
        1.0,
        -26.3397274017334,
        -20.541452407836914,
        688.0809936523438,
        -0.7071067690849304,
        0.7071067690849304,
        0.0,
        -0.7071067690849304,
        -0.7071067690849304,
        0.0,
        0.0,
        0.0,
        1.0,
        -9.956063270568848,
        17.16855239868164,
        688.0809936523438,
        0.7071067690849304,
        0.7071067690849304,
        0.0,
        0.7071067690849304,
        -0.7071067690849304,
        0.0,
        0.0,
        0.0,
        -1.0,
        -49.935882568359375,
        -3.054701328277588,
        686.9190063476563,
        0.7071067690849304,
        -0.7071067690849304,
        0.0,
        -0.7071067690849304,
        -0.7071067690849304,
        0.0,
        0.0,
        0.0,
        -1.0,
        -12.9329833984375,
        40.05759811401367,
        699.4190063476563,
        -0.7071067690849304,
        -0.7071067690849304,
        0.0,
        0.7071067690849304,
        -0.7071067690849304,
        0.0,
        0.0,
        0.0,
        1.0,
        26.3397274017334,
        20.541452407836914,
        700.5809936523438,
        0.7071067690849304,
        -0.7071067690849304,
        0.0,
        0.7071067690849304,
        0.7071067690849304,
        0.0,
        0.0,
        0.0,
        1.0,
        9.956063270568848,
        -17.16855239868164,
        700.5809936523438,
        -0.7071067690849304,
        -0.7071067690849304,
        0.0,
        -0.7071067690849304,
        0.7071067690849304,
        0.0,
        0.0,
        0.0,
        -1.0,
        49.935882568359375,
        3.054701328277588,
        699.4190063476563,
        -0.7071067690849304,
        0.7071067690849304,
        0.0,
        0.7071067690849304,
        0.7071067690849304,
        0.0,
        0.0,
        0.0,
        -1.0,
        12.9329833984375,
        -40.05759811401367,
        736.9190063476563,
        0.7071067690849304,
        0.7071067690849304,
        0.0,
        -0.7071067690849304,
        0.7071067690849304,
        0.0,
        0.0,
        0.0,
        1.0,
        -26.3397274017334,
        -20.541452407836914,
        738.0809936523438,
        -0.7071067690849304,
        0.7071067690849304,
        0.0,
        -0.7071067690849304,
        -0.7071067690849304,
        0.0,
        0.0,
        0.0,
        1.0,
        -9.956063270568848,
        17.16855239868164,
        738.0809936523438,
        0.7071067690849304,
        0.7071067690849304,
        0.0,
        0.7071067690849304,
        -0.7071067690849304,
        0.0,
        0.0,
        0.0,
        -1.0,
        -49.935882568359375,
        -3.054701328277588,
        736.9190063476563,
        0.7071067690849304,
        -0.7071067690849304,
        0.0,
        -0.7071067690849304,
        -0.7071067690849304,
        0.0,
        0.0,
        0.0,
        -1.0,
        -12.9329833984375,
        40.05759811401367,
        749.4190063476563,
        -0.7071067690849304,
        -0.7071067690849304,
        0.0,
        0.7071067690849304,
        -0.7071067690849304,
        0.0,
        0.0,
        0.0,
        1.0,
        26.3397274017334,
        20.541452407836914,
        750.5809936523438,
        0.7071067690849304,
        -0.7071067690849304,
        0.0,
        0.7071067690849304,
        0.7071067690849304,
        0.0,
        0.0,
        0.0,
        1.0,
        9.956063270568848,
        -17.16855239868164,
        750.5809936523438,
        -0.7071067690849304,
        -0.7071067690849304,
        0.0,
        -0.7071067690849304,
        0.7071067690849304,
        0.0,
        0.0,
        0.0,
        -1.0,
        49.935882568359375,
        3.054701328277588,
        749.4190063476563
    ],
    "velo_geometry_x_pitch": [
        0.054999999701976776,
        0.054999999701976776,
        0.054999999701976776,
        0.054999999701976776,
        0.054999999701976776,
        0.054999999701976776,
        0.054999999701976776,
        0.054999999701976776,
        0.054999999701976776,
        0.054999999701976776,
        0.054999999701976776,
        0.054999999701976776,
        0.054999999701976776,
        0.054999999701976776,
        0.054999999701976776,
        0.054999999701976776,
        0.054999999701976776,
        0.054999999701976776,
        0.054999999701976776,
        0.054999999701976776,
        0.054999999701976776,
        0.054999999701976776,
        0.054999999701976776,
        0.054999999701976776,
        0.054999999701976776,
        0.054999999701976776,
        0.054999999701976776,
        0.054999999701976776,
        0.054999999701976776,
        0.054999999701976776,
        0.054999999701976776,
        0.054999999701976776,
        0.054999999701976776,
        0.054999999701976776,
        0.054999999701976776,
        0.054999999701976776,
        0.054999999701976776,
        0.054999999701976776,
        0.054999999701976776,
        0.054999999701976776,
        0.054999999701976776,
        0.054999999701976776,
        0.054999999701976776,
        0.054999999701976776,
        0.054999999701976776,
        0.054999999701976776,
        0.054999999701976776,
        0.054999999701976776,
        0.054999999701976776,
        0.054999999701976776,
        0.054999999701976776,
        0.054999999701976776,
        0.054999999701976776,
        0.054999999701976776,
        0.054999999701976776,
        0.054999999701976776,
        0.054999999701976776,
        0.054999999701976776,
        0.054999999701976776,
        0.054999999701976776,
        0.054999999701976776,
        0.054999999701976776,
        0.054999999701976776,
        0.054999999701976776,
        0.054999999701976776,
        0.054999999701976776,
        0.054999999701976776,
        0.054999999701976776,
        0.054999999701976776,
        0.054999999701976776,
        0.054999999701976776,
        0.054999999701976776,
        0.054999999701976776,
        0.054999999701976776,
        0.054999999701976776,
        0.054999999701976776,
        0.054999999701976776,
        0.054999999701976776,
        0.054999999701976776,
        0.054999999701976776,
        0.054999999701976776,
        0.054999999701976776,
        0.054999999701976776,
        0.054999999701976776,
        0.054999999701976776,
        0.054999999701976776,
        0.054999999701976776,
        0.054999999701976776,
        0.054999999701976776,
        0.054999999701976776,
        0.054999999701976776,
        0.054999999701976776,
        0.054999999701976776,
        0.054999999701976776,
        0.054999999701976776,
        0.054999999701976776,
        0.054999999701976776,
        0.054999999701976776,
        0.054999999701976776,
        0.054999999701976776,
        0.054999999701976776,
        0.054999999701976776,
        0.054999999701976776,
        0.054999999701976776,
        0.054999999701976776,
        0.054999999701976776,
        0.054999999701976776,
        0.054999999701976776,
        0.054999999701976776,
        0.054999999701976776,
        0.054999999701976776,
        0.054999999701976776,
        0.054999999701976776,
        0.054999999701976776,
        0.054999999701976776,
        0.054999999701976776,
        0.054999999701976776,
        0.054999999701976776,
        0.054999999701976776,
        0.054999999701976776,
        0.054999999701976776,
        0.054999999701976776,
        0.054999999701976776,
        0.054999999701976776,
        0.054999999701976776,
        0.054999999701976776,
        0.054999999701976776,
        0.054999999701976776,
        0.054999999701976776,
        0.054999999701976776,
        0.054999999701976776,
        0.054999999701976776,
        0.054999999701976776,
        0.054999999701976776,
        0.054999999701976776,
        0.054999999701976776,
        0.054999999701976776,
        0.054999999701976776,
        0.054999999701976776,
        0.054999999701976776,
        0.054999999701976776,
        0.054999999701976776,
        0.054999999701976776,
        0.054999999701976776,
        0.054999999701976776,
        0.054999999701976776,
        0.054999999701976776,
        0.054999999701976776,
        0.054999999701976776,
        0.054999999701976776,
        0.054999999701976776,
        0.054999999701976776,
        0.054999999701976776,
        0.054999999701976776,
        0.054999999701976776,
        0.054999999701976776,
        0.054999999701976776,
        0.054999999701976776,
        0.054999999701976776,
        0.054999999701976776,
        0.054999999701976776,
        0.054999999701976776,
        0.054999999701976776,
        0.054999999701976776,
        0.054999999701976776,
        0.054999999701976776,
        0.054999999701976776,
        0.054999999701976776,
        0.054999999701976776,
        0.054999999701976776,
        0.054999999701976776,
        0.054999999701976776,
        0.054999999701976776,
        0.054999999701976776,
        0.054999999701976776,
        0.054999999701976776,
        0.054999999701976776,
        0.054999999701976776,
        0.054999999701976776,
        0.054999999701976776,
        0.054999999701976776,
        0.054999999701976776,
        0.054999999701976776,
        0.054999999701976776,
        0.054999999701976776,
        0.054999999701976776,
        0.054999999701976776,
        0.054999999701976776,
        0.054999999701976776,
        0.054999999701976776,
        0.054999999701976776,
        0.054999999701976776,
        0.054999999701976776,
        0.054999999701976776,
        0.054999999701976776,
        0.054999999701976776,
        0.054999999701976776,
        0.054999999701976776,
        0.054999999701976776,
        0.054999999701976776,
        0.054999999701976776,
        0.054999999701976776,
        0.054999999701976776,
        0.054999999701976776,
        0.054999999701976776,
        0.054999999701976776,
        0.054999999701976776,
        0.054999999701976776,
        0.054999999701976776,
        0.054999999701976776,
        0.054999999701976776,
        0.054999999701976776,
        0.054999999701976776,
        0.054999999701976776,
        0.054999999701976776,
        0.054999999701976776,
        0.054999999701976776,
        0.054999999701976776,
        0.054999999701976776,
        0.054999999701976776,
        0.054999999701976776,
        0.054999999701976776,
        0.054999999701976776,
        0.054999999701976776,
        0.054999999701976776,
        0.054999999701976776,
        0.054999999701976776,
        0.054999999701976776,
        0.054999999701976776,
        0.054999999701976776,
        0.054999999701976776,
        0.054999999701976776,
        0.054999999701976776,
        0.054999999701976776,
        0.054999999701976776,
        0.054999999701976776,
        0.054999999701976776,
        0.054999999701976776,
        0.054999999701976776,
        0.054999999701976776,
        0.054999999701976776,
        0.054999999701976776,
        0.054999999701976776,
        0.054999999701976776,
        0.054999999701976776,
        0.054999999701976776,
        0.054999999701976776,
        0.054999999701976776,
        0.054999999701976776,
        0.054999999701976776,
        0.054999999701976776,
        0.054999999701976776,
        0.054999999701976776,
        0.054999999701976776,
        0.09624999761581421,
        0.13750000298023224,
        0.09624999761581421,
        0.054999999701976776,
        0.054999999701976776,
        0.054999999701976776,
        0.054999999701976776,
        0.054999999701976776,
        0.054999999701976776,
        0.054999999701976776,
        0.054999999701976776,
        0.054999999701976776,
        0.054999999701976776,
        0.054999999701976776,
        0.054999999701976776,
        0.054999999701976776,
        0.054999999701976776,
        0.054999999701976776,
        0.054999999701976776,
        0.054999999701976776,
        0.054999999701976776,
        0.054999999701976776,
        0.054999999701976776,
        0.054999999701976776,
        0.054999999701976776,
        0.054999999701976776,
        0.054999999701976776,
        0.054999999701976776,
        0.054999999701976776,
        0.054999999701976776,
        0.054999999701976776,
        0.054999999701976776,
        0.054999999701976776,
        0.054999999701976776,
        0.054999999701976776,
        0.054999999701976776,
        0.054999999701976776,
        0.054999999701976776,
        0.054999999701976776,
        0.054999999701976776,
        0.054999999701976776,
        0.054999999701976776,
        0.054999999701976776,
        0.054999999701976776,
        0.054999999701976776,
        0.054999999701976776,
        0.054999999701976776,
        0.054999999701976776,
        0.054999999701976776,
        0.054999999701976776,
        0.054999999701976776,
        0.054999999701976776,
        0.054999999701976776,
        0.054999999701976776,
        0.054999999701976776,
        0.054999999701976776,
        0.054999999701976776,
        0.054999999701976776,
        0.054999999701976776,
        0.054999999701976776,
        0.054999999701976776,
        0.054999999701976776,
        0.054999999701976776,
        0.054999999701976776,
        0.054999999701976776,
        0.054999999701976776,
        0.054999999701976776,
        0.054999999701976776,
        0.054999999701976776,
        0.054999999701976776,
        0.054999999701976776,
        0.054999999701976776,
        0.054999999701976776,
        0.054999999701976776,
        0.054999999701976776,
        0.054999999701976776,
        0.054999999701976776,
        0.054999999701976776,
        0.054999999701976776,
        0.054999999701976776,
        0.054999999701976776,
        0.054999999701976776,
        0.054999999701976776,
        0.054999999701976776,
        0.054999999701976776,
        0.054999999701976776,
        0.054999999701976776,
        0.054999999701976776,
        0.054999999701976776,
        0.054999999701976776,
        0.054999999701976776,
        0.054999999701976776,
        0.054999999701976776,
        0.054999999701976776,
        0.054999999701976776,
        0.054999999701976776,
        0.054999999701976776,
        0.054999999701976776,
        0.054999999701976776,
        0.054999999701976776,
        0.054999999701976776,
        0.054999999701976776,
        0.054999999701976776,
        0.054999999701976776,
        0.054999999701976776,
        0.054999999701976776,
        0.054999999701976776,
        0.054999999701976776,
        0.054999999701976776,
        0.054999999701976776,
        0.054999999701976776,
        0.054999999701976776,
        0.054999999701976776,
        0.054999999701976776,
        0.054999999701976776,
        0.054999999701976776,
        0.054999999701976776,
        0.054999999701976776,
        0.054999999701976776,
        0.054999999701976776,
        0.054999999701976776,
        0.054999999701976776,
        0.054999999701976776,
        0.054999999701976776,
        0.054999999701976776,
        0.054999999701976776,
        0.054999999701976776,
        0.054999999701976776,
        0.054999999701976776,
        0.054999999701976776,
        0.054999999701976776,
        0.054999999701976776,
        0.054999999701976776,
        0.054999999701976776,
        0.054999999701976776,
        0.054999999701976776,
        0.054999999701976776,
        0.054999999701976776,
        0.054999999701976776,
        0.054999999701976776,
        0.054999999701976776,
        0.054999999701976776,
        0.054999999701976776,
        0.054999999701976776,
        0.054999999701976776,
        0.054999999701976776,
        0.054999999701976776,
        0.054999999701976776,
        0.054999999701976776,
        0.054999999701976776,
        0.054999999701976776,
        0.054999999701976776,
        0.054999999701976776,
        0.054999999701976776,
        0.054999999701976776,
        0.054999999701976776,
        0.054999999701976776,
        0.054999999701976776,
        0.054999999701976776,
        0.054999999701976776,
        0.054999999701976776,
        0.054999999701976776,
        0.054999999701976776,
        0.054999999701976776,
        0.054999999701976776,
        0.054999999701976776,
        0.054999999701976776,
        0.054999999701976776,
        0.054999999701976776,
        0.054999999701976776,
        0.054999999701976776,
        0.054999999701976776,
        0.054999999701976776,
        0.054999999701976776,
        0.054999999701976776,
        0.054999999701976776,
        0.054999999701976776,
        0.054999999701976776,
        0.054999999701976776,
        0.054999999701976776,
        0.054999999701976776,
        0.054999999701976776,
        0.054999999701976776,
        0.054999999701976776,
        0.054999999701976776,
        0.054999999701976776,
        0.054999999701976776,
        0.054999999701976776,
        0.054999999701976776,
        0.054999999701976776,
        0.054999999701976776,
        0.054999999701976776,
        0.054999999701976776,
        0.054999999701976776,
        0.054999999701976776,
        0.054999999701976776,
        0.054999999701976776,
        0.054999999701976776,
        0.054999999701976776,
        0.054999999701976776,
        0.054999999701976776,
        0.054999999701976776,
        0.054999999701976776,
        0.054999999701976776,
        0.054999999701976776,
        0.054999999701976776,
        0.054999999701976776,
        0.054999999701976776,
        0.054999999701976776,
        0.054999999701976776,
        0.054999999701976776,
        0.054999999701976776,
        0.054999999701976776,
        0.054999999701976776,
        0.054999999701976776,
        0.054999999701976776,
        0.054999999701976776,
        0.054999999701976776,
        0.054999999701976776,
        0.054999999701976776,
        0.054999999701976776,
        0.054999999701976776,
        0.054999999701976776,
        0.054999999701976776,
        0.054999999701976776,
        0.054999999701976776,
        0.054999999701976776,
        0.054999999701976776,
        0.054999999701976776,
        0.054999999701976776,
        0.054999999701976776,
        0.054999999701976776,
        0.054999999701976776,
        0.054999999701976776,
        0.054999999701976776,
        0.054999999701976776,
        0.054999999701976776,
        0.054999999701976776,
        0.054999999701976776,
        0.054999999701976776,
        0.054999999701976776,
        0.054999999701976776,
        0.054999999701976776,
        0.054999999701976776,
        0.054999999701976776,
        0.054999999701976776,
        0.054999999701976776,
        0.054999999701976776,
        0.054999999701976776,
        0.054999999701976776,
        0.054999999701976776,
        0.054999999701976776,
        0.054999999701976776,
        0.054999999701976776,
        0.054999999701976776,
        0.054999999701976776,
        0.09624999761581421,
        0.13750000298023224,
        0.09624999761581421,
        0.054999999701976776,
        0.054999999701976776,
        0.054999999701976776,
        0.054999999701976776,
        0.054999999701976776,
        0.054999999701976776,
        0.054999999701976776,
        0.054999999701976776,
        0.054999999701976776,
        0.054999999701976776,
        0.054999999701976776,
        0.054999999701976776,
        0.054999999701976776,
        0.054999999701976776,
        0.054999999701976776,
        0.054999999701976776,
        0.054999999701976776,
        0.054999999701976776,
        0.054999999701976776,
        0.054999999701976776,
        0.054999999701976776,
        0.054999999701976776,
        0.054999999701976776,
        0.054999999701976776,
        0.054999999701976776,
        0.054999999701976776,
        0.054999999701976776,
        0.054999999701976776,
        0.054999999701976776,
        0.054999999701976776,
        0.054999999701976776,
        0.054999999701976776,
        0.054999999701976776,
        0.054999999701976776,
        0.054999999701976776,
        0.054999999701976776,
        0.054999999701976776,
        0.054999999701976776,
        0.054999999701976776,
        0.054999999701976776,
        0.054999999701976776,
        0.054999999701976776,
        0.054999999701976776,
        0.054999999701976776,
        0.054999999701976776,
        0.054999999701976776,
        0.054999999701976776,
        0.054999999701976776,
        0.054999999701976776,
        0.054999999701976776,
        0.054999999701976776,
        0.054999999701976776,
        0.054999999701976776,
        0.054999999701976776,
        0.054999999701976776,
        0.054999999701976776,
        0.054999999701976776,
        0.054999999701976776,
        0.054999999701976776,
        0.054999999701976776,
        0.054999999701976776,
        0.054999999701976776,
        0.054999999701976776,
        0.054999999701976776,
        0.054999999701976776,
        0.054999999701976776,
        0.054999999701976776,
        0.054999999701976776,
        0.054999999701976776,
        0.054999999701976776,
        0.054999999701976776,
        0.054999999701976776,
        0.054999999701976776,
        0.054999999701976776,
        0.054999999701976776,
        0.054999999701976776,
        0.054999999701976776,
        0.054999999701976776,
        0.054999999701976776,
        0.054999999701976776,
        0.054999999701976776,
        0.054999999701976776,
        0.054999999701976776,
        0.054999999701976776,
        0.054999999701976776,
        0.054999999701976776,
        0.054999999701976776,
        0.054999999701976776,
        0.054999999701976776,
        0.054999999701976776,
        0.054999999701976776,
        0.054999999701976776,
        0.054999999701976776,
        0.054999999701976776,
        0.054999999701976776,
        0.054999999701976776,
        0.054999999701976776,
        0.054999999701976776,
        0.054999999701976776,
        0.054999999701976776,
        0.054999999701976776,
        0.054999999701976776,
        0.054999999701976776,
        0.054999999701976776,
        0.054999999701976776,
        0.054999999701976776,
        0.054999999701976776,
        0.054999999701976776,
        0.054999999701976776,
        0.054999999701976776,
        0.054999999701976776,
        0.054999999701976776,
        0.054999999701976776,
        0.054999999701976776,
        0.054999999701976776,
        0.054999999701976776,
        0.054999999701976776,
        0.054999999701976776,
        0.054999999701976776,
        0.054999999701976776,
        0.054999999701976776,
        0.054999999701976776,
        0.054999999701976776,
        0.054999999701976776,
        0.054999999701976776,
        0.054999999701976776,
        0.054999999701976776,
        0.054999999701976776,
        0.054999999701976776,
        0.054999999701976776,
        0.054999999701976776,
        0.054999999701976776,
        0.054999999701976776,
        0.054999999701976776,
        0.054999999701976776,
        0.054999999701976776,
        0.054999999701976776,
        0.054999999701976776,
        0.054999999701976776,
        0.054999999701976776,
        0.054999999701976776,
        0.054999999701976776,
        0.054999999701976776,
        0.054999999701976776,
        0.054999999701976776,
        0.054999999701976776,
        0.054999999701976776,
        0.054999999701976776,
        0.054999999701976776,
        0.054999999701976776,
        0.054999999701976776,
        0.054999999701976776,
        0.054999999701976776,
        0.054999999701976776,
        0.054999999701976776,
        0.054999999701976776,
        0.054999999701976776,
        0.054999999701976776,
        0.054999999701976776,
        0.054999999701976776,
        0.054999999701976776,
        0.054999999701976776,
        0.054999999701976776,
        0.054999999701976776,
        0.054999999701976776,
        0.054999999701976776,
        0.054999999701976776,
        0.054999999701976776,
        0.054999999701976776,
        0.054999999701976776,
        0.054999999701976776,
        0.054999999701976776,
        0.054999999701976776,
        0.054999999701976776,
        0.054999999701976776,
        0.054999999701976776,
        0.054999999701976776,
        0.054999999701976776,
        0.054999999701976776,
        0.054999999701976776,
        0.054999999701976776,
        0.054999999701976776,
        0.054999999701976776,
        0.054999999701976776,
        0.054999999701976776,
        0.054999999701976776,
        0.054999999701976776,
        0.054999999701976776,
        0.054999999701976776,
        0.054999999701976776,
        0.054999999701976776,
        0.054999999701976776,
        0.054999999701976776,
        0.054999999701976776,
        0.054999999701976776,
        0.054999999701976776,
        0.054999999701976776,
        0.054999999701976776,
        0.054999999701976776,
        0.054999999701976776,
        0.054999999701976776,
        0.054999999701976776,
        0.054999999701976776,
        0.054999999701976776,
        0.054999999701976776,
        0.054999999701976776,
        0.054999999701976776,
        0.054999999701976776,
        0.054999999701976776,
        0.054999999701976776,
        0.054999999701976776,
        0.054999999701976776,
        0.054999999701976776,
        0.054999999701976776,
        0.054999999701976776,
        0.054999999701976776,
        0.054999999701976776,
        0.054999999701976776,
        0.054999999701976776,
        0.054999999701976776,
        0.054999999701976776,
        0.054999999701976776,
        0.054999999701976776,
        0.054999999701976776,
        0.054999999701976776,
        0.054999999701976776,
        0.054999999701976776,
        0.054999999701976776,
        0.054999999701976776,
        0.054999999701976776,
        0.054999999701976776,
        0.054999999701976776,
        0.054999999701976776,
        0.054999999701976776,
        0.054999999701976776,
        0.054999999701976776,
        0.054999999701976776,
        0.054999999701976776,
        0.054999999701976776,
        0.054999999701976776,
        0.054999999701976776,
        0.054999999701976776,
        0.054999999701976776,
        0.054999999701976776,
        0.054999999701976776,
        0.054999999701976776,
        0.054999999701976776,
        0.054999999701976776,
        0.054999999701976776,
        0.054999999701976776,
        0.054999999701976776,
        0.054999999701976776,
        0.054999999701976776,
        0.054999999701976776,
        0.054999999701976776
    ]
}